Mujer,2,1
Hombre,1,2
Mujer,4,2
Mujer,4,0
Mujer,1,4
Hombre,2,3
Hombre,0,5
Hombre,1,5
Hombre,1,4
Hombre,1,2
Mujer,0,3
Mujer,3,1
Mujer,0,5
Hombre,4,4
Hombre,2,5
Mujer,0,4
Mujer,1,3
Mujer,1,2
Hombre,0,4
Mujer,2,0
Hombre,1,1
Hombre,1,3
Hombre,0,3
Hombre,0,3
Hombre,3,4
Hombre,2,4
Hombre,1,1
Mujer,2,0
Mujer,4,0
Hombre,1,7
Hombre,3,1
Mujer,2,2
Hombre,3,1
Mujer,2,1
Mujer,3,1
Mujer,2,2
Mujer,2,2
Mujer,1,3
Mujer,2,0
Hombre,1,6
Hombre,1,2
Mujer,4,3
Mujer,1,4
Mujer,3,0
Mujer,1,5
Mujer,0,3
Hombre,0,2
Mujer,3,2
Hombre,0,4
Mujer,1,3
Mujer,3,2
Mujer,0,4
Hombre,1,3
Mujer,1,4
Mujer,1,5
Mujer,2,0
Hombre,1,3
Mujer,1,0
Mujer,5,0
Mujer,1,2
